<?xml version="1.0" encoding="UTF-8"?>
<svg version="1.1" viewBox="0 0 24 24" xmlns="http://www.w3.org/2000/svg" xmlns:xlink="http://www.w3.org/1999/xlink">
    <!--Generated by IJSVG (https://github.com/iconjar/IJSVG)-->
    <g stroke-linecap="round" stroke-width="1.5" stroke="#000" fill="none" stroke-linejoin="round">
        <path d="M2.25,23.25c-0.82842,0 -1.5,-0.67158 -1.5,-1.5v-16.5c0,-0.82842 0.67158,-1.5 1.5,-1.5h19.5c0.82842,0 1.5,0.67158 1.5,1.5v16.5c0,0.82842 -0.67158,1.5 -1.5,1.5Z"></path>
        <path d="M0.75,9.75h22.5"></path>
        <path d="M6.75,6v-5.25"></path>
        <path d="M17.25,6v-5.25"></path>
        <path d="M5.62,13.5v0"></path>
        <path d="M5.625,13.5h-1.63918e-08c-0.207107,9.05293e-09 -0.375,0.167893 -0.375,0.375c9.05293e-09,0.207107 0.167893,0.375 0.375,0.375c0.207107,-9.05293e-09 0.375,-0.167893 0.375,-0.375v0c0,-0.207107 -0.167893,-0.375 -0.375,-0.375"></path>
        <path d="M5.62,18.75v0"></path>
        <path d="M5.625,18.75h-1.63918e-08c-0.207107,9.05293e-09 -0.375,0.167893 -0.375,0.375c9.05293e-09,0.207107 0.167893,0.375 0.375,0.375c0.207107,-9.05293e-09 0.375,-0.167893 0.375,-0.375v0c0,-0.207107 -0.167893,-0.375 -0.375,-0.375"></path>
        <path d="M12,13.5v0"></path>
        <path d="M12,13.5h-1.63918e-08c-0.207107,9.05293e-09 -0.375,0.167893 -0.375,0.375c9.05293e-09,0.207107 0.167893,0.375 0.375,0.375c0.207107,-9.05293e-09 0.375,-0.167893 0.375,-0.375v1.63918e-08c0,-0.207107 -0.167893,-0.375 -0.375,-0.375"></path>
        <path d="M12,18.75v0"></path>
        <path d="M12,18.75h-1.63918e-08c-0.207107,9.05293e-09 -0.375,0.167893 -0.375,0.375c9.05293e-09,0.207107 0.167893,0.375 0.375,0.375c0.207107,-9.05293e-09 0.375,-0.167893 0.375,-0.375v1.63918e-08c0,-0.207107 -0.167893,-0.375 -0.375,-0.375"></path>
        <path d="M18.38,13.5v0"></path>
        <path d="M18.375,13.5h-1.63918e-08c-0.207107,9.05293e-09 -0.375,0.167893 -0.375,0.375c9.05293e-09,0.207107 0.167893,0.375 0.375,0.375c0.207107,-9.05293e-09 0.375,-0.167893 0.375,-0.375v0c0,-0.207107 -0.167893,-0.375 -0.375,-0.375"></path>
        <path d="M18.38,18.75v0"></path>
        <path d="M18.375,18.75h-1.63918e-08c-0.207107,9.05293e-09 -0.375,0.167893 -0.375,0.375c9.05293e-09,0.207107 0.167893,0.375 0.375,0.375c0.207107,-9.05293e-09 0.375,-0.167893 0.375,-0.375v0c0,-0.207107 -0.167893,-0.375 -0.375,-0.375"></path>
    </g>
</svg>